{
    "data": {
        "source": "data",
        "format": "RAW",
        "paths": [
            "/cvmfs/atlas-nightlies.cern.ch/repo/data/data-art/TrigP1Test/data17_13TeV.00327265.physics_EnhancedBias.merge.RAW._lb0100._SFO-1._0001.1"
        ]
    },
    "data_FTK_MissingTowers": {
        "source": "data",
        "format": "RAW_FTK",
        "paths": [
            "/cvmfs/atlas-nightlies.cern.ch/repo/data/data-art/TrigP1Test/data18_13TeV.00360026.physics_EnhancedBias.MissingTowers._lb0151._SFO-6._0001.1",
            "/cvmfs/atlas-nightlies.cern.ch/repo/data/data-art/TrigP1Test/data18_13TeV.00360026.physics_EnhancedBias.MissingTowers._lb0151._SFO-6._0002.1",
            "/cvmfs/atlas-nightlies.cern.ch/repo/data/data-art/TrigP1Test/data18_13TeV.00360026.physics_EnhancedBias.MissingTowers._lb0151._SFO-6._0003.1",
            "/cvmfs/atlas-nightlies.cern.ch/repo/data/data-art/TrigP1Test/data18_13TeV.00360026.physics_EnhancedBias.MissingTowers._lb0151._SFO-6._0004.1"
        ]
    },
    "ttbar": {
        "source": "mc",
        "format": "RDO",
        "paths": [
            "/cvmfs/atlas-nightlies.cern.ch/repo/data/data-art/TriggerTest/valid1.410000.PowhegPythiaEvtGen_P2012_ttbar_hdamp172p5_nonallhad.merge.RDO.e4993_s3214_r11315/RDO.17533168._000001.pool.root.1",
            "/cvmfs/atlas-nightlies.cern.ch/repo/data/data-art/TriggerTest/valid1.410000.PowhegPythiaEvtGen_P2012_ttbar_hdamp172p5_nonallhad.merge.RDO.e4993_s3214_r11315/RDO.17533168._000002.pool.root.1"
        ]
    },
    "ttbar_rel21": {
        "source": "mc",
        "format": "RDO_FTK",
        "paths": [
            "/cvmfs/atlas-nightlies.cern.ch/repo/data/data-art/TriggerTest/valid1.410000.PowhegPythiaEvtGen_P2012_ttbar_hdamp172p5_nonallhad.digit.RDO_FTK.e4993_s3214_r11234_d1505/RDO_FTK.17071950._000065.pool.root.1",
            "/cvmfs/atlas-nightlies.cern.ch/repo/data/data-art/TriggerTest/valid1.410000.PowhegPythiaEvtGen_P2012_ttbar_hdamp172p5_nonallhad.digit.RDO_FTK.e4993_s3214_r11234_d1505/RDO_FTK.17071950._000235.pool.root.1"
        ]
    }
}